cod_ciclista,ciclista,FechaNacimiento,Pais
2021,Vincenzo Nibali ,1991-02-16,92
2022,Lars Boom ,1989-10-13,80
2023,Jakob Fuglsang ﻿ ,1991-01-12,50
2024,Andriy Grivko ,1989-12-13,185
2025,Dmitriy Gruzdev ﻿,1988-04-11,95
2026,Tanel Kangert ,1991-02-16,61
2027,Michele Scarponi ,1993-02-09,92
2028,Rein Taaramae ,1986-10-09,61
2029,Lieuwe Westra ,1986-11-14,80
2030,Fabio Aru ,1993-02-09,92
2031,Jean-Christophe Peraud,1991-04-09,66
2032,Jan Bakelants,1992-03-11,14
2033,Romain Bardet,1990-01-02,66
2034,Patrick Gretsch,1990-07-03,3
2035,Ben Gastauer ﻿ ,1996-01-04,109
2036,Damien Gaudin,1995-10-18,66
2037,Christophe Riblon,1994-11-08,66
2038,Johan Van Summeren,1995-03-30,14
2039,Alexis Villermoz,1994-07-06,66
2040,Thibaut Pinot ,1995-05-05,66
2041,William Bonnet,1995-03-25,66
2042,Sébastien Chavanel ,1989-12-13,66
2043,Arnaud Démare ,1990-04-08,66
2044,Alexandre Geniez ,1990-10-16,66
2045,Matthieu Ladagnous ,1990-09-09,66
2046,Steve Morabito ,1991-06-27,171
2047,Jérémy Roy Francia,1993-04-03,66
2048,Benoît Vaugrenard ,1991-07-04,92
2049,Chris Froome,1987-11-27,145
2050,Peter Kennaugh ,1990-10-28,145
2051,Leopold Konig ,1995-01-25,147
2052,Wout Poels ,1991-09-21,80
2053,Richie Porte ,1980-08-12,11
2054,Nicolas Roche,1980-08-12,86
2055,Luke Rowe ,1986-10-29,145
2056,Ian Stannard ,1983-03-06,145
2057,Geraint Thomas ,1995-10-06,145
2058,Alberto Contador,1985-05-30,59
2059,Ivan Basso ,1993-01-24,92
2060,Daniele Bennati,1996-09-20,91
2061,Roman Kreuziger ,1988-07-28,147
2062,Rafal Majka ,1994-05-21,143
2063,Michael Rogers ,1988-08-10,11
2064,Peter Sagan ﻿,1985-05-17,57
2065,Matteo Tosatto ,1976-09-29,92
2066,Michael Valgren,1977-12-09,50
2067,Nairo Quintana ,1990-06-02,41
2068,Winner Anacona ,1990-01-23,41
2069,Jonathan Castroviejo ,1988-06-27,59
2070,Alex Dowsett ,1988-02-05,145
2071,Imanol Erviti ,1989-07-11,59
2072,José Herrada,1990-01-12,59
2073,Gorka Izaguirre ,1989-03-06,59
2074,Adriano Malori,1995-12-26,91
2075,Alejandro Valverde,1986-03-20,59
2076,Richard Carapaz,1993-03-29,52
2077,Tejay Van Garderen,1987-04-27,60
2078,Damiano Caruso,1988-10-03,91
2079,Rohan Dennis ,1983-11-15,11
2080,Daniel Oss,1991-03-01,91
2081,Manuel Quinziato ,1990-07-26,91
2082,Samuel Sánchez ,1985-10-01,59
2083,Michael Schär ,1989-02-04,171
2084,Greg Van Avermaet ,1987-10-07,14
2085,Danilo Wyss ,1988-12-30,171
2086,Tony Gallopin,1984-07-18,66
2087,Lars Bak ,1992-08-18,50
2088,Thomas de Gendt,1990-02-04,14
2089,Jens Debusschere ,1985-06-08,14
2090,André Greipel,1993-11-12,3
2091,Adam Hansen,1982-02-08,11
2092,Greg Henderson ,1992-11-04,143
2093,Marcel Sieberg,1980-04-25,3
2094,Tim Wellens ,1982-05-06,14
2095,John Degenkolb ,1980-09-02,3
2096,Warren Barguil ,1994-07-03,66
2097,Roy Curvers ,1970-01-25,80
2098,Koen De Kort,1989-11-25,80
2099,Tom Dumoulin ,1985-01-17,80
2100,Simon Geschke ,1990-03-25,3
2101,Georg Preidler ,1994-01-21,12
2102,Ramon Sinkeldam ,1994-11-16,80
2103,Albert Timmer,1992-07-08,80
2104,Joaquim Rodríguez ,1997-07-06,59
2105,Giampaolo Caruso ,1997-04-20,92
2106,Jacopo Guarnieri ,1997-08-19,92
2107,Marco Haller,1994-08-06,12
2108,Dmitry Kozontchuk ,1996-09-03,152
2109,Alexander Kristoff ,1994-11-17,133
2110,Alberto Losada ,1995-06-08,59
2111,Tiago Machado ,1995-10-20,144
2112,Luca Paolini Italia,1998-11-22,92
2113,Simon Gerrans ,1986-11-18,11
2114,Michael Albasini ,1986-11-18,171
2115,Luke Durbridge ,1994-04-20,11
2116,Daryl Impey ,1996-09-01,168
2117,Michael Matthews ,1994-08-18,12
2118,Svein Tuft ,1984-05-16,35
2119,Pieter Weening ,1992-12-18,80
2120,Adam Yates ,1992-07-31,145
2121,Simon Yates ,1992-04-17,145
2122,Wilco Kelderman ,1989-12-12,80
2123,Robert Gesink,1981-06-28,80
2124,Steven Kruijswijk ,1981-06-05,80
2125,Tom Leezer ,1987-11-15,80
2126,Paul Martens ,1981-05-13,3
2127,Bram Tankink ,1984-05-26,80
2128,Laurens Ten Dam,1984-05-14,80
2129,Jos van Emden,1987-10-01,80
2130,Sep Vanmarcke ,1989-08-31,14
2131,Nacer Bouhanni ,1996-05-18,66
2132,Nicolas Edet ,1995-05-05,66
2133,Christophe Laporte ,1995-03-25,66
2134,Luis Ángel Maté ,1989-12-13,59
2135,Dani Navarro ,1990-04-08,59
2136,Florian Sénéchal,1990-10-16,66
2137,Julien Simon ,1990-09-09,66
2138,Geoffrey Soupe ,1991-06-27,66
2139,Kenneth Vanbilsen ,1993-04-03,14
2140,Daniel Teklehaymanot ,1986-08-29,56
2141,Edvald Boasson Hagen ,1988-08-11,134
2142,Steve Cummings,1987-04-27,145
2143,Tyler Farrar ,1988-10-03,60
2144,Jacques Janse Van Rensburg ,1983-11-15,168
2145,Reinardt Janse Van Rensburg ,1991-03-01,168
2146,Merhawi Kudus ,1990-07-26,56
2147,Louis Meintjes ,1985-10-01,168
2148,Serge Pauwels ,1989-02-04,14
2149,Fernando Gaviria,1987-04-27,41
2150,Freddy Piamonte,1988-10-03,41
2151,Germán Enrique Chaves,1983-11-15,41
2152,Jhonatan Restrepo Valencia,1991-03-01,41
2153,John Edilberto Martínez,1990-07-26,41
2154,Mauricio Ardila,1986-08-29,41
2155,Brayan Sánchez,1988-08-11,41
2156,Mauricio Ortega,1987-04-27,41
2157,Mario Salas,1988-10-03,41
2158,Iván Danilo Medina,1996-05-18,41
2159,John Anderson Rodríguez,1995-05-05,41
2160,Juan Pablo Suárez,1995-03-25,41
2161,Kevin Ríos,1989-12-13,41
2162,Mateo García,1990-04-08,41
2163,Nicolás Castro,1990-10-16,41
2164,Roberto González,1990-09-09,41
2165,Robigzon Oyola,1989-12-13,41
2166,Oscar Sevilla,1990-09-09,41
2167,Fredy Montaña,1988-10-03,41
2168,Iván Mauricio Casas,1983-11-15,41
2169,Matteo Bono ,1983-11-11,66
2170,Mattia Cattaneo ,1990-10-25,66
2171,Davide Cimolai ,1989-08-13,66
2172,Valerio Conti ,1993-03-30,66
2173,Mario Costa ,1985-11-15,66
2174,Rui Costa ,1986-10-05,66
2175,Kristijan Đurasek ,1987-07-26,66
2176,Chun Kai Feng ,1988-11-02,39
2177,Roberto Ferrari ,1983-03-09,66
2178,Tsgabu Grmay ,1991-08-25,66
2179,Ilia Koshevoy ,1991-03-20,66
2180,Julian Alaphilippe ,1992-06-11,14
2181,Tom Boonen ,1980-10-15,14
2182,Maxime Bouet ,1986-11-03,14
2183,Gianluca Brambilla ,1987-08-22,14
2184,Rodrigo Contreras ,1994-06-02,14
2185,Egan Bernal,1997-01-13,41
2186,Geraint Thomas,1986-05-27,145
2187,Jonathan Caicedo,1991-08-25,52
2188,Aristóbulo Cala,1980-10-15,41
2189,Primoz Roglic,1988-11-02,58
2190,Simon Yates,1989-08-13,145
